{
  "authorBooks" : {
    "J.K.Rowling" : [ "Harry Potter and the Philosopher's Stone", "Harry Potter and the Chamber of Secrets", "Harry Potter and the Goblet of Fire" ],
    "Kathy Sierra" : [ "Head First Java", "Head First EJB", "Head First Servlets" ],
    "Bert Bates" : [ "Head First Java", "Head First EJB", "Head First Servlets" ]
  },
  "countryToActorToMovies" : {
    "Global" : {
      "Jason Momoa" : {
        "Aquaman" : "ACTION",
        "Road to Paloma" : "THRILLER",
        "Justice League" : "ACTION"
      },
      "Ben Affleck" : {
        "Batman" : "ACTION",
        "Justice League" : "THRILLER"
      },
      "Morgan Freeman" : {
        "Angel Has Fallen" : "THRILLER",
        "London Has Fallen" : "THRILLER"
      },
      "Gerald Butler" : {
        "Angel Has Fallen" : "THRILLER",
        "London Has Fallen" : "THRILLER"
      }
    },
    "US" : {
      "Jason Momoa" : {
        "Aquaman" : "ACTION",
        "Road to Paloma" : "THRILLER",
        "Justice League" : "ACTION"
      },
      "Ben Affleck" : {
        "Batman" : "ACTION",
        "Justice League" : "THRILLER"
      }
    },
    "UK" : {
      "Morgan Freeman" : {
        "Angel Has Fallen" : "THRILLER",
        "London Has Fallen" : "THRILLER"
      },
      "Gerald Butler" : {
        "Angel Has Fallen" : "THRILLER",
        "London Has Fallen" : "THRILLER"
      }
    },
    "Ireland" : {
      "Morgan Freeman" : {
        "Angel Has Fallen" : "THRILLER",
        "London Has Fallen" : "THRILLER"
      },
      "Gerald Butler" : {
        "Angel Has Fallen" : "THRILLER",
        "London Has Fallen" : "THRILLER"
      }
    }
  }
}